{
  "project_info": {
    "project_number": "732427589711",
    "firebase_url": "https://monadev-7e031.firebaseio.com",
    "project_id": "monadev-7e031",
    "storage_bucket": "monadev-7e031.appspot.com"
  },
  "client": [
    {
      "client_info": {
        "mobilesdk_app_id": "1:732427589711:android:1bb3f4bc077922a0",
        "android_client_info": {
          "package_name": "com.devmona"
        }
      },
      "oauth_client": [
        {
          "client_id": "732427589711-ikrnans4pd24due1opob09m7ncicj0f3.apps.googleusercontent.com",
          "client_type": 1,
          "android_info": {
            "package_name": "com.devmona",
            "certificate_hash": "aec1ab7171746c6e89f7688cf0440367f85d8e0d"
          }
        },
        {
          "client_id": "732427589711-usqmhvj76u9f684rlplnbrvuhg53noo3.apps.googleusercontent.com",
          "client_type": 3
        }
      ],
      "api_key": [
        {
          "current_key": "AIzaSyCKNO7QcrdhzgUtZveK_KXWWZxcXCH7Ryo"
        }
      ],
      "services": {
        "analytics_service": {
          "status": 1
        },
        "appinvite_service": {
          "status": 2,
          "other_platform_oauth_client": [
            {
              "client_id": "732427589711-usqmhvj76u9f684rlplnbrvuhg53noo3.apps.googleusercontent.com",
              "client_type": 3
            }
          ]
        },
        "ads_service": {
          "status": 2
        }
      }
    }
  ],
  "configuration_version": "1"
}